{
  "development": {
    "username": "flowidp",
    "password": "@kuCintaRupi4h",
    "database": "idp_flow_old",
    "host": "127.0.0.1",
    "dialect": "mysql",
    "timezone": "+07:00",
    "logging": false,
    "pool": {
      "max": 5,
      "min": 0,
      "idle": 20000,
      "acquire": 20000
    }
  },
  "test": {
    "username": "ticket",
    "password": "ticket",
    "database": "inspira_event",
    "host": "inspiralocal.id",
    "dialect": "mysql",
    "logging": false
  },
  "production": {
    "username": "flowidp",
    "password": "@kuCintaRupi4h",
    "database": "idp_flow_old",
    "host": "127.0.0.1",
    "dialect": "mysql",
    "timezone": "+07:00",
    "logging": false,
    "pool": {
      "max": 5,
      "min": 0,
      "idle": 20000,
      "acquire": 20000
    }
  }
}
